sim/vhdl/verification/classes/arithmetic/scalar/divider/vivado/dump.vcd
$date
   Sun Sep  3 12:22:53 2023
$end
$version
  2020.2
$end
$timescale
  1ps
$end
$scope module ntm_testbench $end
$var reg 1 ! clk $end
$var reg 1 " rst $end
$scope module vif $end
$var wire 1 # clk $end
$var wire 1 $ rst $end
$var reg 8 % ip1 [7:0] $end
$var reg 8 & ip2 [7:0] $end
$var reg 9 ' out [8:0] $end
$upscope $end
$scope module DUT $end
$var wire 1 ( clk $end
$var wire 1 ) rst $end
$var wire 8 * in1 [7:0] $end
$var wire 8 + in2 [7:0] $end
$var reg 9 , out [8:0] $end
$upscope $end
$scope module t1 $end
$var reg 32 - environment [31:0] $end
$scope module vif $end
$var wire 1 # clk $end
$var wire 1 $ rst $end
$var reg 8 % ip1 [7:0] $end
$var reg 8 & ip2 [7:0] $end
$var reg 9 ' out [8:0] $end
$upscope $end
$upscope $end
$upscope $end
$enddefinitions $end
#0
$dumpvars
0!
1"
0#
1$
bx %
bx &
b0 '
0(
1)
bx *
bx +
b0 ,
b11000000100000000zzzzzzz0zx11z00 -
$end
#2000
1!
1#
b110111 %
b11010 &
1(
b110111 *
b11010 +
b0 ,
#4000
0!
0#
0(
#5000
0"
0$
0)
#6000
1!
1#
b1010001 '
1(
b1010001 ,
#8000
0!
0#
0(
#10000
1!
1#
b1000011 %
b1000001 &
1(
b1000011 *
b1000001 +
b1010001 ,
#12000
0!
0#
0(
#14000
1!
1#
b10000100 '
1(
b10000100 ,
#16000
0!
0#
0(
#18000
1!
1#
b11011 %
b100110 &
1(
b11011 *
b100110 +
b10000100 ,
#20000
0!
0#
0(
#22000
1!
1#
b1000001 '
1(
b1000001 ,
#24000
0!
0#
0(
#26000
1!
1#
b1001110 %
b110111 &
1(
b1001110 *
b110111 +
b1000001 ,
#28000
0!
0#
0(
#30000
1!
1#
b10000101 '
1(
b10000101 ,
#32000
0!
0#
0(
#34000
1!
1#
b111 %
b101010 &
1(
b111 *
b101010 +
b10000101 ,
#36000
0!
0#
0(
#38000
1!
1#
b110001 '
1(
b110001 ,
#40000
0!
0#
0(
#42000
1!
1#
1(
b110001 ,
